{
  "cypressSeuM5": "cypress_m5_seu",
  "cypressSeuM6": "cypress_m6_seu",
  "cypressSeuM7": "cypress_m7_seu",
  "cypressSeuM8": "cypress_m8_seu",
  "dummyByte": "dummy_byte",
  "extwtdCnt": "extwtd_cnt",
  "fgdos1RechargeCount": "fgdos_1_recharge_count",
  "fgdos1RechargeFrequency": "fgdos_1_recharge_frequency",
  "fgdos1SensorFrequency": "fgdos_1_sensor_frequency",
  "fgdos1TargetFrequency": "fgdos_1_reference_frequency",
  "fgdos2RechargeCount": "fgdos_2_recharge_count",
  "fgdos2RechargeFrequency": "fgdos_2_recharge_frequency",
  "fgdos2SensorFrequency": "fgdos_2_sensor_frequency",
  "fgdos2TargetFrequency": "fgdos_2_reference_frequency",
  "mon33": "mon_3_3",
  "mon5": "mon_5",
  "packetNumber": "packet_number",
  "statusFlag": "status_flag",
  "toshibaSeuM1": "toshiba_m1_seu",
  "toshibaSeuM2": "toshiba_m2_seu",
  "toshibaSeuM3": "toshiba_m3_seu",
  "toshibaSeuM4": "toshiba_m4_seu",
  "swbuild": "swbuild",
  "vBat": "v_bat"
}