{
  "channel2Info": "CHANNEL2INFO",
  "channel1CurrentState": "CHANNEL1CURRENTSTATE",
  "channel3CurrentState": "CHANNEL3CURRENTSTATE",
  "channel4Info": "CHANNEL4INFO",
  "channel4CurrentState": "CHANNEL4CURRENTSTATE",
  "channel3PreviousState": "CHANNEL3PREVIOUSSTATE",
  "channel4PreviousState": "CHANNEL4PREVIOUSSTATE",
  "channel1PreviousState": "CHANNEL1PREVIOUSSTATE",
  "deviceName": "DEVICENAME",
  "devEUI": "DEVEUI",
  "channel2CurrentState": "CHANNEL2CURRENTSTATE",
  "channel2PreviousState": "CHANNEL2PREVIOUSSTATE",
  "channel1Info": "CHANNEL1INFO",
  "frameCounter": "FRAMECOUNTER",
  "channel3Info": "CHANNEL3INFO",
  "applicationID": "APPLICATIONID",
  "config": "CONFIG",
  "applicationName": "APPLICATIONNAME",
  "lowBat": "LOWBAT",
  "frameType": "FRAMETYPE"
}
